Report7/Ex1/test.vcd
$date
	Tue May 01 16:19:22 2018
$end
$version
	Icarus Verilog
$end
$timescale
	1s
$end
$scope module freqDevider $end
$var wire 1 ! clk $end
$var wire 1 " rst $end
$var reg 25 # count [24:0] $end
$var reg 1 $ dclk $end
$upscope $end
$scope module test $end
$var wire 7 % out [6:0] $end
$var reg 1 & clk $end
$var reg 1 ' rst $end
$var integer 32 ( cnt [31:0] $end
$scope module S1 $end
$var wire 1 & clk $end
$var wire 1 ' rst $end
$var wire 7 ) out [6:0] $end
$var wire 4 * cntOut [3:0] $end
$scope module CNT $end
$var wire 1 & clk $end
$var wire 1 ' rst $end
$var reg 4 + out [3:0] $end
$upscope $end
$scope module SS $end
$var wire 4 , in [3:0] $end
$var reg 7 - out [6:0] $end
$upscope $end
$upscope $end
$upscope $end
$enddefinitions $end
#0
$dumpvars
b111111 -
b0 ,
b0 +
b0 *
b111111 )
b0 (
0'
0&
b111111 %
x$
bx #
z"
z!
$end
#1
b110 %
b110 )
b110 -
b1 *
b1 +
b1 ,
1&
#2
b1 (
0&
#3
b1011011 %
b1011011 )
b1011011 -
b10 *
b10 +
b10 ,
1&
#4
b10 (
0&
#5
b1001111 %
b1001111 )
b1001111 -
b11 *
b11 +
b11 ,
1&
#6
b11 (
0&
#7
b1100110 %
b1100110 )
b1100110 -
b100 *
b100 +
b100 ,
1&
#8
b100 (
0&
#9
b1101101 %
b1101101 )
b1101101 -
b101 *
b101 +
b101 ,
1&
#10
b101 (
0&
#11
b1111101 %
b1111101 )
b1111101 -
b110 *
b110 +
b110 ,
1&
#12
b110 (
0&
#13
b111 %
b111 )
b111 -
b111 *
b111 +
b111 ,
1&
#14
b111 (
0&
#15
b1111111 %
b1111111 )
b1111111 -
b1000 *
b1000 +
b1000 ,
1&
#16
b1000 (
0&
#17
b1101111 %
b1101111 )
b1101111 -
b1001 *
b1001 +
b1001 ,
1&
#18
b1001 (
0&
#19
b1110111 %
b1110111 )
b1110111 -
b1010 *
b1010 +
b1010 ,
1&
#20
b1010 (
0&
#21
b1111100 %
b1111100 )
b1111100 -
b1011 *
b1011 +
b1011 ,
1&
#22
b1011 (
0&
#23
b111001 %
b111001 )
b111001 -
b1100 *
b1100 +
b1100 ,
1&
#24
b1100 (
0&
#25
b1011110 %
b1011110 )
b1011110 -
b1101 *
b1101 +
b1101 ,
1&
#26
b1101 (
0&
#27
b1110001 %
b1110001 )
b1110001 -
b1110 *
b1110 +
b1110 ,
1&
#28
b1110 (
0&
#29
b0 %
b0 )
b0 -
b1111 *
b1111 +
b1111 ,
1&
#30
b1111 (
0&
#31
b111111 %
b111111 )
b111111 -
b0 *
b0 +
b0 ,
1&
#32
b10000 (
0&
#33
b110 %
b110 )
b110 -
b1 *
b1 +
b1 ,
1&
#34
b10001 (
0&
#35
b1011011 %
b1011011 )
b1011011 -
b10 *
b10 +
b10 ,
1&
#36
b10010 (
0&
#37
b1001111 %
b1001111 )
b1001111 -
b11 *
b11 +
b11 ,
1&
#38
b10011 (
0&
#39
b1100110 %
b1100110 )
b1100110 -
b100 *
b100 +
b100 ,
1&
#40
b10100 (
0&
#41
b1101101 %
b1101101 )
b1101101 -
b101 *
b101 +
b101 ,
1&
#42
b10101 (
0&
#43
b1111101 %
b1111101 )
b1111101 -
b110 *
b110 +
b110 ,
1&
#44
b10110 (
0&
#45
b111 %
b111 )
b111 -
b111 *
b111 +
b111 ,
1&
#46
b10111 (
0&
#47
b1111111 %
b1111111 )
b1111111 -
b1000 *
b1000 +
b1000 ,
1&
#48
b11000 (
0&
#49
b1101111 %
b1101111 )
b1101111 -
b1001 *
b1001 +
b1001 ,
1&
#50
b11001 (
0&
#51
b1110111 %
b1110111 )
b1110111 -
b1010 *
b1010 +
b1010 ,
1&
#52
b11010 (
0&
#53
b1111100 %
b1111100 )
b1111100 -
b1011 *
b1011 +
b1011 ,
1&
#54
b11011 (
0&
#55
b111001 %
b111001 )
b111001 -
b1100 *
b1100 +
b1100 ,
1&
#56
b11100 (
0&
#57
b1011110 %
b1011110 )
b1011110 -
b1101 *
b1101 +
b1101 ,
1&
#58
b11101 (
0&
#59
b1110001 %
b1110001 )
b1110001 -
b1110 *
b1110 +
b1110 ,
1&
#60
b11110 (
0&
#61
b0 %
b0 )
b0 -
b1111 *
b1111 +
b1111 ,
1&
#62
b11111 (
0&
#63
b111111 %
b111111 )
b111111 -
b0 *
b0 +
b0 ,
1&
#64
b100000 (
0&
#65
b110 %
b110 )
b110 -
b1 *
b1 +
b1 ,
1&
#66
b100001 (
0&
#67
b1011011 %
b1011011 )
b1011011 -
b10 *
b10 +
b10 ,
1&
#68
b100010 (
0&
#69
b1001111 %
b1001111 )
b1001111 -
b11 *
b11 +
b11 ,
1&
#70
b100011 (
0&
#71
b1100110 %
b1100110 )
b1100110 -
b100 *
b100 +
b100 ,
1&
#72
b100100 (
0&
#73
b1101101 %
b1101101 )
b1101101 -
b101 *
b101 +
b101 ,
1&
#74
b100101 (
0&
#75
b1111101 %
b1111101 )
b1111101 -
b110 *
b110 +
b110 ,
1&
#76
b100110 (
0&
#77
b111 %
b111 )
b111 -
b111 *
b111 +
b111 ,
1&
#78
b100111 (
0&
#79
b1111111 %
b1111111 )
b1111111 -
b1000 *
b1000 +
b1000 ,
1&
#80
b101000 (
0&
#81
b1101111 %
b1101111 )
b1101111 -
b1001 *
b1001 +
b1001 ,
1&
#82
b101001 (
0&
#83
b1110111 %
b1110111 )
b1110111 -
b1010 *
b1010 +
b1010 ,
1&
#84
b101010 (
0&
#85
b1111100 %
b1111100 )
b1111100 -
b1011 *
b1011 +
b1011 ,
1&
#86
b101011 (
0&
#87
b111001 %
b111001 )
b111001 -
b1100 *
b1100 +
b1100 ,
1&
#88
b101100 (
0&
#89
b1011110 %
b1011110 )
b1011110 -
b1101 *
b1101 +
b1101 ,
1&
#90
b101101 (
0&
#91
b1110001 %
b1110001 )
b1110001 -
b1110 *
b1110 +
b1110 ,
1&
#92
b101110 (
0&
#93
b0 %
b0 )
b0 -
b1111 *
b1111 +
b1111 ,
1&
#94
b101111 (
0&
#95
b111111 %
b111111 )
b111111 -
b0 *
b0 +
b0 ,
1&
#96
b110000 (
0&
#97
b110 %
b110 )
b110 -
b1 *
b1 +
b1 ,
1&
#98
b110001 (
0&
#99
b1011011 %
b1011011 )
b1011011 -
b10 *
b10 +
b10 ,
1&
#100
b110010 (
0&
#101
b1001111 %
b1001111 )
b1001111 -
b11 *
b11 +
b11 ,
1&
#102
b110011 (
0&
#103
b1100110 %
b1100110 )
b1100110 -
b100 *
b100 +
b100 ,
1&
#104
b110100 (
0&
#105
b1101101 %
b1101101 )
b1101101 -
b101 *
b101 +
b101 ,
1&
#106
b110101 (
0&
#107
b1111101 %
b1111101 )
b1111101 -
b110 *
b110 +
b110 ,
1&
#108
b110110 (
0&
#109
b111 %
b111 )
b111 -
b111 *
b111 +
b111 ,
1&
#110
b110111 (
0&
#111
b1111111 %
b1111111 )
b1111111 -
b1000 *
b1000 +
b1000 ,
1&
#112
b111000 (
0&
#113
b1101111 %
b1101111 )
b1101111 -
b1001 *
b1001 +
b1001 ,
1&
#114
b111001 (
0&
#115
b1110111 %
b1110111 )
b1110111 -
b1010 *
b1010 +
b1010 ,
1&
#116
b111010 (
0&
#117
b1111100 %
b1111100 )
b1111100 -
b1011 *
b1011 +
b1011 ,
1&
#118
b111011 (
0&
#119
b111001 %
b111001 )
b111001 -
b1100 *
b1100 +
b1100 ,
1&
#120
b111100 (
0&
#121
b1011110 %
b1011110 )
b1011110 -
b1101 *
b1101 +
b1101 ,
1&
#122
b111101 (
0&
#123
b1110001 %
b1110001 )
b1110001 -
b1110 *
b1110 +
b1110 ,
1&
#124
b111110 (
0&
#125
b0 %
b0 )
b0 -
b1111 *
b1111 +
b1111 ,
1&
#126
b111111 (
0&
#127
b111111 %
b111111 )
b111111 -
b0 *
b0 +
b0 ,
1&
#128
b1000000 (
0&
#129
b110 %
b110 )
b110 -
b1 *
b1 +
b1 ,
1&
#130
b1000001 (
0&
#131
b1011011 %
b1011011 )
b1011011 -
b10 *
b10 +
b10 ,
1&
#132
b1000010 (
0&
#133
b1001111 %
b1001111 )
b1001111 -
b11 *
b11 +
b11 ,
1&
#134
b1000011 (
0&
#135
b1100110 %
b1100110 )
b1100110 -
b100 *
b100 +
b100 ,
1&
#136
b1000100 (
0&
#137
b1101101 %
b1101101 )
b1101101 -
b101 *
b101 +
b101 ,
1&
#138
b1000101 (
0&
#139
b1111101 %
b1111101 )
b1111101 -
b110 *
b110 +
b110 ,
1&
#140
b1000110 (
0&
#141
b111 %
b111 )
b111 -
b111 *
b111 +
b111 ,
1&
#142
b1000111 (
0&
#143
b1111111 %
b1111111 )
b1111111 -
b1000 *
b1000 +
b1000 ,
1&
#144
b1001000 (
0&
#145
b1101111 %
b1101111 )
b1101111 -
b1001 *
b1001 +
b1001 ,
1&
#146
b1001001 (
0&
#147
b1110111 %
b1110111 )
b1110111 -
b1010 *
b1010 +
b1010 ,
1&
#148
b1001010 (
0&
#149
b1111100 %
b1111100 )
b1111100 -
b1011 *
b1011 +
b1011 ,
1&
#150
b1001011 (
0&
#151
b111001 %
b111001 )
b111001 -
b1100 *
b1100 +
b1100 ,
1&
#152
b1001100 (
0&
#153
b1011110 %
b1011110 )
b1011110 -
b1101 *
b1101 +
b1101 ,
1&
#154
b1001101 (
0&
#155
b1110001 %
b1110001 )
b1110001 -
b1110 *
b1110 +
b1110 ,
1&
#156
b1001110 (
0&
#157
b0 %
b0 )
b0 -
b1111 *
b1111 +
b1111 ,
1&
#158
b1001111 (
0&
#159
b111111 %
b111111 )
b111111 -
b0 *
b0 +
b0 ,
1&
#160
b1010000 (
0&
#161
b110 %
b110 )
b110 -
b1 *
b1 +
b1 ,
1&
#162
b1010001 (
0&
#163
b1011011 %
b1011011 )
b1011011 -
b10 *
b10 +
b10 ,
1&
#164
b1010010 (
0&
#165
b1001111 %
b1001111 )
b1001111 -
b11 *
b11 +
b11 ,
1&
#166
b1010011 (
0&
#167
b1100110 %
b1100110 )
b1100110 -
b100 *
b100 +
b100 ,
1&
#168
b1010100 (
0&
#169
b1101101 %
b1101101 )
b1101101 -
b101 *
b101 +
b101 ,
1&
#170
b1010101 (
0&
#171
b1111101 %
b1111101 )
b1111101 -
b110 *
b110 +
b110 ,
1&
#172
b1010110 (
0&
#173
b111 %
b111 )
b111 -
b111 *
b111 +
b111 ,
1&
#174
b1010111 (
0&
#175
b1111111 %
b1111111 )
b1111111 -
b1000 *
b1000 +
b1000 ,
1&
#176
b1011000 (
0&
#177
b1101111 %
b1101111 )
b1101111 -
b1001 *
b1001 +
b1001 ,
1&
#178
b1011001 (
0&
#179
b1110111 %
b1110111 )
b1110111 -
b1010 *
b1010 +
b1010 ,
1&
#180
b1011010 (
0&
#181
b1111100 %
b1111100 )
b1111100 -
b1011 *
b1011 +
b1011 ,
1&
#182
b1011011 (
0&
#183
b111001 %
b111001 )
b111001 -
b1100 *
b1100 +
b1100 ,
1&
#184
b1011100 (
0&
#185
b1011110 %
b1011110 )
b1011110 -
b1101 *
b1101 +
b1101 ,
1&
#186
b1011101 (
0&
#187
b1110001 %
b1110001 )
b1110001 -
b1110 *
b1110 +
b1110 ,
1&
#188
b1011110 (
0&
#189
b0 %
b0 )
b0 -
b1111 *
b1111 +
b1111 ,
1&
#190
b1011111 (
0&
#191
b111111 %
b111111 )
b111111 -
b0 *
b0 +
b0 ,
1&
#192
b1100000 (
0&
#193
b110 %
b110 )
b110 -
b1 *
b1 +
b1 ,
1&
#194
b1100001 (
0&
#195
b1011011 %
b1011011 )
b1011011 -
b10 *
b10 +
b10 ,
1&
#196
b1100010 (
0&
#197
b1001111 %
b1001111 )
b1001111 -
b11 *
b11 +
b11 ,
1&
#198
b1100011 (
0&
#199
b1100110 %
b1100110 )
b1100110 -
b100 *
b100 +
b100 ,
1&
#200
b1101101 %
b1101101 )
b1101101 -
b101 *
b101 +
b101 ,
0'
b0 (
0&
#201
b1111101 %
b1111101 )
b1111101 -
b110 *
b110 +
b110 ,
1&
#202
b1 (
0&
#203
b111 %
b111 )
b111 -
b111 *
b111 +
b111 ,
1&
#204
b10 (
0&
#205
b1111111 %
b1111111 )
b1111111 -
b1000 *
b1000 +
b1000 ,
1&
#206
b11 (
0&
#207
b1101111 %
b1101111 )
b1101111 -
b1001 *
b1001 +
b1001 ,
1&
#208
b100 (
0&
#209
b1110111 %
b1110111 )
b1110111 -
b1010 *
b1010 +
b1010 ,
1&
#210
b101 (
0&
#211
b1111100 %
b1111100 )
b1111100 -
b1011 *
b1011 +
b1011 ,
1&
#212
b110 (
0&
#213
b111001 %
b111001 )
b111001 -
b1100 *
b1100 +
b1100 ,
1&
#214
b111 (
0&
#215
b1011110 %
b1011110 )
b1011110 -
b1101 *
b1101 +
b1101 ,
1&
#216
b1000 (
0&
#217
b1110001 %
b1110001 )
b1110001 -
b1110 *
b1110 +
b1110 ,
1&
#218
b1001 (
0&
#219
b0 %
b0 )
b0 -
b1111 *
b1111 +
b1111 ,
1&
#220
b1010 (
0&
#221
b111111 %
b111111 )
b111111 -
b0 *
b0 +
b0 ,
1&
#222
b1011 (
0&
#223
b110 %
b110 )
b110 -
b1 *
b1 +
b1 ,
1&
#224
b1100 (
0&
#225
b1011011 %
b1011011 )
b1011011 -
b10 *
b10 +
b10 ,
1&
#226
b1101 (
0&
#227
b1001111 %
b1001111 )
b1001111 -
b11 *
b11 +
b11 ,
1&
#228
b1110 (
0&
#229
b1100110 %
b1100110 )
b1100110 -
b100 *
b100 +
b100 ,
1&
#230
b1111 (
0&
#231
b1101101 %
b1101101 )
b1101101 -
b101 *
b101 +
b101 ,
1&
#232
b10000 (
0&
#233
b1111101 %
b1111101 )
b1111101 -
b110 *
b110 +
b110 ,
1&
#234
b10001 (
0&
#235
b111 %
b111 )
b111 -
b111 *
b111 +
b111 ,
1&
#236
b10010 (
0&
#237
b1111111 %
b1111111 )
b1111111 -
b1000 *
b1000 +
b1000 ,
1&
#238
b10011 (
0&
#239
b1101111 %
b1101111 )
b1101111 -
b1001 *
b1001 +
b1001 ,
1&
#240
b10100 (
0&
#241
b1110111 %
b1110111 )
b1110111 -
b1010 *
b1010 +
b1010 ,
1&
#242
b10101 (
0&
#243
b1111100 %
b1111100 )
b1111100 -
b1011 *
b1011 +
b1011 ,
1&
#244
b10110 (
0&
#245
b111001 %
b111001 )
b111001 -
b1100 *
b1100 +
b1100 ,
1&
#246
b10111 (
0&
#247
b1011110 %
b1011110 )
b1011110 -
b1101 *
b1101 +
b1101 ,
1&
#248
b11000 (
0&
#249
b1110001 %
b1110001 )
b1110001 -
b1110 *
b1110 +
b1110 ,
1&
#250
b11001 (
0&
#251
b0 %
b0 )
b0 -
b1111 *
b1111 +
b1111 ,
1&
#252
b11010 (
0&
#253
b111111 %
b111111 )
b111111 -
b0 *
b0 +
b0 ,
1&
#254
b11011 (
0&
#255
b110 %
b110 )
b110 -
b1 *
b1 +
b1 ,
1&
#256
b11100 (
0&
#257
b1011011 %
b1011011 )
b1011011 -
b10 *
b10 +
b10 ,
1&
#258
b11101 (
0&
#259
b1001111 %
b1001111 )
b1001111 -
b11 *
b11 +
b11 ,
1&
#260
b11110 (
0&
#261
b1100110 %
b1100110 )
b1100110 -
b100 *
b100 +
b100 ,
1&
#262
b11111 (
0&
#263
b1101101 %
b1101101 )
b1101101 -
b101 *
b101 +
b101 ,
1&
#264
b100000 (
0&
#265
b1111101 %
b1111101 )
b1111101 -
b110 *
b110 +
b110 ,
1&
#266
b100001 (
0&
#267
b111 %
b111 )
b111 -
b111 *
b111 +
b111 ,
1&
#268
b100010 (
0&
#269
b1111111 %
b1111111 )
b1111111 -
b1000 *
b1000 +
b1000 ,
1&
#270
b100011 (
0&
#271
b1101111 %
b1101111 )
b1101111 -
b1001 *
b1001 +
b1001 ,
1&
#272
b100100 (
0&
#273
b1110111 %
b1110111 )
b1110111 -
b1010 *
b1010 +
b1010 ,
1&
#274
b100101 (
0&
#275
b1111100 %
b1111100 )
b1111100 -
b1011 *
b1011 +
b1011 ,
1&
#276
b100110 (
0&
#277
b111001 %
b111001 )
b111001 -
b1100 *
b1100 +
b1100 ,
1&
#278
b100111 (
0&
#279
b1011110 %
b1011110 )
b1011110 -
b1101 *
b1101 +
b1101 ,
1&
#280
b101000 (
0&
#281
b1110001 %
b1110001 )
b1110001 -
b1110 *
b1110 +
b1110 ,
1&
#282
b101001 (
0&
#283
b0 %
b0 )
b0 -
b1111 *
b1111 +
b1111 ,
1&
#284
b101010 (
0&
#285
b111111 %
b111111 )
b111111 -
b0 *
b0 +
b0 ,
1&
#286
b101011 (
0&
#287
b110 %
b110 )
b110 -
b1 *
b1 +
b1 ,
1&
#288
b101100 (
0&
#289
b1011011 %
b1011011 )
b1011011 -
b10 *
b10 +
b10 ,
1&
#290
b101101 (
0&
#291
b1001111 %
b1001111 )
b1001111 -
b11 *
b11 +
b11 ,
1&
#292
b101110 (
0&
#293
b1100110 %
b1100110 )
b1100110 -
b100 *
b100 +
b100 ,
1&
#294
b101111 (
0&
#295
b1101101 %
b1101101 )
b1101101 -
b101 *
b101 +
b101 ,
1&
#296
b110000 (
0&
#297
b1111101 %
b1111101 )
b1111101 -
b110 *
b110 +
b110 ,
1&
#298
b110001 (
0&
#299
b111 %
b111 )
b111 -
b111 *
b111 +
b111 ,
1&
#300
b110010 (
0&
#301
b1111111 %
b1111111 )
b1111111 -
b1000 *
b1000 +
b1000 ,
1&
#302
b110011 (
0&
#303
b1101111 %
b1101111 )
b1101111 -
b1001 *
b1001 +
b1001 ,
1&
#304
b110100 (
0&
#305
b1110111 %
b1110111 )
b1110111 -
b1010 *
b1010 +
b1010 ,
1&
#306
b110101 (
0&
#307
b1111100 %
b1111100 )
b1111100 -
b1011 *
b1011 +
b1011 ,
1&
#308
b110110 (
0&
#309
b111001 %
b111001 )
b111001 -
b1100 *
b1100 +
b1100 ,
1&
#310
b110111 (
0&
#311
b1011110 %
b1011110 )
b1011110 -
b1101 *
b1101 +
b1101 ,
1&
#312
b111000 (
0&
#313
b1110001 %
b1110001 )
b1110001 -
b1110 *
b1110 +
b1110 ,
1&
#314
b111001 (
0&
#315
b0 %
b0 )
b0 -
b1111 *
b1111 +
b1111 ,
1&
#316
b111010 (
0&
#317
b111111 %
b111111 )
b111111 -
b0 *
b0 +
b0 ,
1&
#318
b111011 (
0&
#319
b110 %
b110 )
b110 -
b1 *
b1 +
b1 ,
1&
#320
b111100 (
0&
#321
b1011011 %
b1011011 )
b1011011 -
b10 *
b10 +
b10 ,
1&
#322
b111101 (
0&
#323
b1001111 %
b1001111 )
b1001111 -
b11 *
b11 +
b11 ,
1&
#324
b111110 (
0&
#325
b1100110 %
b1100110 )
b1100110 -
b100 *
b100 +
b100 ,
1&
#326
b111111 (
0&
#327
b1101101 %
b1101101 )
b1101101 -
b101 *
b101 +
b101 ,
1&
#328
b1000000 (
0&
#329
b1111101 %
b1111101 )
b1111101 -
b110 *
b110 +
b110 ,
1&
#330
b1000001 (
0&
#331
b111 %
b111 )
b111 -
b111 *
b111 +
b111 ,
1&
#332
b1000010 (
0&
#333
b1111111 %
b1111111 )
b1111111 -
b1000 *
b1000 +
b1000 ,
1&
#334
b1000011 (
0&
#335
b1101111 %
b1101111 )
b1101111 -
b1001 *
b1001 +
b1001 ,
1&
#336
b1000100 (
0&
#337
b1110111 %
b1110111 )
b1110111 -
b1010 *
b1010 +
b1010 ,
1&
#338
b1000101 (
0&
#339
b1111100 %
b1111100 )
b1111100 -
b1011 *
b1011 +
b1011 ,
1&
#340
b1000110 (
0&
#341
b111001 %
b111001 )
b111001 -
b1100 *
b1100 +
b1100 ,
1&
#342
b1000111 (
0&
#343
b1011110 %
b1011110 )
b1011110 -
b1101 *
b1101 +
b1101 ,
1&
#344
b1001000 (
0&
#345
b1110001 %
b1110001 )
b1110001 -
b1110 *
b1110 +
b1110 ,
1&
#346
b1001001 (
0&
#347
b0 %
b0 )
b0 -
b1111 *
b1111 +
b1111 ,
1&
#348
b1001010 (
0&
#349
b111111 %
b111111 )
b111111 -
b0 *
b0 +
b0 ,
1&
#350
b1001011 (
0&
#351
b110 %
b110 )
b110 -
b1 *
b1 +
b1 ,
1&
#352
b1001100 (
0&
#353
b1011011 %
b1011011 )
b1011011 -
b10 *
b10 +
b10 ,
1&
#354
b1001101 (
0&
#355
b1001111 %
b1001111 )
b1001111 -
b11 *
b11 +
b11 ,
1&
#356
b1001110 (
0&
#357
b1100110 %
b1100110 )
b1100110 -
b100 *
b100 +
b100 ,
1&
#358
b1001111 (
0&
#359
b1101101 %
b1101101 )
b1101101 -
b101 *
b101 +
b101 ,
1&
#360
b1010000 (
0&
#361
b1111101 %
b1111101 )
b1111101 -
b110 *
b110 +
b110 ,
1&
#362
b1010001 (
0&
#363
b111 %
b111 )
b111 -
b111 *
b111 +
b111 ,
1&
#364
b1010010 (
0&
#365
b1111111 %
b1111111 )
b1111111 -
b1000 *
b1000 +
b1000 ,
1&
#366
b1010011 (
0&
#367
b1101111 %
b1101111 )
b1101111 -
b1001 *
b1001 +
b1001 ,
1&
#368
b1010100 (
0&
#369
b1110111 %
b1110111 )
b1110111 -
b1010 *
b1010 +
b1010 ,
1&
#370
b1010101 (
0&
#371
b1111100 %
b1111100 )
b1111100 -
b1011 *
b1011 +
b1011 ,
1&
#372
b1010110 (
0&
#373
b111001 %
b111001 )
b111001 -
b1100 *
b1100 +
b1100 ,
1&
#374
b1010111 (
0&
#375
b1011110 %
b1011110 )
b1011110 -
b1101 *
b1101 +
b1101 ,
1&
#376
b1011000 (
0&
#377
b1110001 %
b1110001 )
b1110001 -
b1110 *
b1110 +
b1110 ,
1&
#378
b1011001 (
0&
#379
b0 %
b0 )
b0 -
b1111 *
b1111 +
b1111 ,
1&
#380
b1011010 (
0&
#381
b111111 %
b111111 )
b111111 -
b0 *
b0 +
b0 ,
1&
#382
b1011011 (
0&
#383
b110 %
b110 )
b110 -
b1 *
b1 +
b1 ,
1&
#384
b1011100 (
0&
#385
b1011011 %
b1011011 )
b1011011 -
b10 *
b10 +
b10 ,
1&
#386
b1011101 (
0&
#387
b1001111 %
b1001111 )
b1001111 -
b11 *
b11 +
b11 ,
1&
#388
b1011110 (
0&
#389
b1100110 %
b1100110 )
b1100110 -
b100 *
b100 +
b100 ,
1&
#390
b1011111 (
0&
#391
b1101101 %
b1101101 )
b1101101 -
b101 *
b101 +
b101 ,
1&
#392
b1100000 (
0&
#393
b1111101 %
b1111101 )
b1111101 -
b110 *
b110 +
b110 ,
1&
#394
b1100001 (
0&
#395
b111 %
b111 )
b111 -
b111 *
b111 +
b111 ,
1&
#396
b1100010 (
0&
#397
b1111111 %
b1111111 )
b1111111 -
b1000 *
b1000 +
b1000 ,
1&
#398
b1100011 (
0&
#399
b1101111 %
b1101111 )
b1101111 -
b1001 *
b1001 +
b1001 ,
1&
#400
b1100100 (
0&
