Report7/Ex3/test.vcd
$date
	Tue May 01 23:44:02 2018
$end
$version
	Icarus Verilog
$end
$timescale
	1s
$end
$scope module test $end
$var wire 7 ! secTen [6:0] $end
$var wire 7 " secOne [6:0] $end
$var wire 7 # minTen [6:0] $end
$var wire 7 $ minOne [6:0] $end
$var reg 1 % clk $end
$var reg 6 & minSet [5:0] $end
$var reg 1 ' rst $end
$var reg 6 ( secSet [5:0] $end
$var reg 1 ) set $end
$var integer 32 * cnt [31:0] $end
$scope module S0 $end
$var wire 1 % clk $end
$var wire 6 + minSet [5:0] $end
$var wire 1 ' rst $end
$var wire 6 , secSet [5:0] $end
$var wire 1 ) set $end
$var wire 4 - secTenBin [3:0] $end
$var wire 7 . secTen [6:0] $end
$var wire 4 / secOneBin [3:0] $end
$var wire 7 0 secOne [6:0] $end
$var wire 6 1 sec [5:0] $end
$var wire 4 2 minTenBin [3:0] $end
$var wire 7 3 minTen [6:0] $end
$var wire 4 4 minOneBin [3:0] $end
$var wire 7 5 minOne [6:0] $end
$var wire 6 6 min [5:0] $end
$scope module BTBMin $end
$var wire 6 7 in [5:0] $end
$var reg 4 8 outOne [3:0] $end
$var reg 4 9 outTen [3:0] $end
$upscope $end
$scope module BTBSec $end
$var wire 6 : in [5:0] $end
$var reg 4 ; outOne [3:0] $end
$var reg 4 < outTen [3:0] $end
$upscope $end
$scope module T0 $end
$var wire 1 % clk $end
$var wire 6 = minSet [5:0] $end
$var wire 1 ' rst $end
$var wire 6 > secSet [5:0] $end
$var wire 1 ) set $end
$var reg 6 ? min [5:0] $end
$var reg 6 @ sec [5:0] $end
$upscope $end
$scope module minOneSS $end
$var wire 4 A in [3:0] $end
$var reg 7 B out [6:0] $end
$upscope $end
$scope module minTenSS $end
$var wire 4 C in [3:0] $end
$var reg 7 D out [6:0] $end
$upscope $end
$scope module secOneSS $end
$var wire 4 E in [3:0] $end
$var reg 7 F out [6:0] $end
$upscope $end
$scope module secTenSS $end
$var wire 4 G in [3:0] $end
$var reg 7 H out [6:0] $end
$upscope $end
$upscope $end
$upscope $end
$enddefinitions $end
#0
$dumpvars
b111111 H
b0 G
b111111 F
b0 E
b111111 D
b0 C
b111111 B
b0 A
b0 @
b0 ?
bx >
bx =
b0 <
b0 ;
b0 :
b0 9
b0 8
b0 7
b0 6
b111111 5
b0 4
b111111 3
b0 2
b0 1
b111111 0
b0 /
b111111 .
b0 -
bx ,
bx +
bx *
0)
bx (
1'
bx &
0%
b111111 $
b111111 #
b111111 "
b111111 !
$end
#1
b0 *
0'
#2
b110 "
b110 0
b110 F
b1 /
b1 ;
b1 E
b1 1
b1 :
b1 @
1%
#3
b1 *
0%
#4
b1011011 "
b1011011 0
b1011011 F
b10 /
b10 ;
b10 E
b10 1
b10 :
b10 @
1%
#5
b10 *
0%
#6
b1001111 "
b1001111 0
b1001111 F
b11 /
b11 ;
b11 E
b11 1
b11 :
b11 @
1%
#7
b11 *
0%
#8
b1100110 "
b1100110 0
b1100110 F
b100 /
b100 ;
b100 E
b100 1
b100 :
b100 @
1%
#9
b100 *
0%
#10
b1101101 "
b1101101 0
b1101101 F
b101 /
b101 ;
b101 E
b101 1
b101 :
b101 @
1%
#11
b101 *
0%
#12
b1111101 "
b1111101 0
b1111101 F
b110 /
b110 ;
b110 E
b110 1
b110 :
b110 @
1%
#13
b110 *
0%
#14
b111 "
b111 0
b111 F
b111 /
b111 ;
b111 E
b111 1
b111 :
b111 @
1%
#15
b111 *
0%
#16
b1111111 "
b1111111 0
b1111111 F
b1000 /
b1000 ;
b1000 E
b1000 1
b1000 :
b1000 @
1%
#17
b1000 *
0%
#18
b1101111 "
b1101111 0
b1101111 F
b1001 /
b1001 ;
b1001 E
b1001 1
b1001 :
b1001 @
1%
#19
b1001 *
0%
#20
b111111 "
b111111 0
b111111 F
b110 !
b110 .
b110 H
b0 /
b0 ;
b0 E
b1 -
b1 <
b1 G
b1010 1
b1010 :
b1010 @
1%
#21
b1010 *
0%
#22
b110 "
b110 0
b110 F
b1 /
b1 ;
b1 E
b1011 1
b1011 :
b1011 @
1%
#23
b1011 *
0%
#24
b1011011 "
b1011011 0
b1011011 F
b10 /
b10 ;
b10 E
b1100 1
b1100 :
b1100 @
1%
#25
b1100 *
0%
#26
b1001111 "
b1001111 0
b1001111 F
b11 /
b11 ;
b11 E
b1101 1
b1101 :
b1101 @
1%
#27
b1101 *
0%
#28
b1100110 "
b1100110 0
b1100110 F
b100 /
b100 ;
b100 E
b1110 1
b1110 :
b1110 @
1%
#29
b1110 *
0%
#30
b1101101 "
b1101101 0
b1101101 F
b101 /
b101 ;
b101 E
b1111 1
b1111 :
b1111 @
1%
#31
b1111 *
0%
#32
b1111101 "
b1111101 0
b1111101 F
b110 /
b110 ;
b110 E
b10000 1
b10000 :
b10000 @
1%
#33
b10000 *
0%
#34
b111 "
b111 0
b111 F
b111 /
b111 ;
b111 E
b10001 1
b10001 :
b10001 @
1%
#35
b10001 *
0%
#36
b1111111 "
b1111111 0
b1111111 F
b1000 /
b1000 ;
b1000 E
b10010 1
b10010 :
b10010 @
1%
#37
b10010 *
0%
#38
b1101111 "
b1101111 0
b1101111 F
b1001 /
b1001 ;
b1001 E
b10011 1
b10011 :
b10011 @
1%
#39
b10011 *
0%
#40
b111111 "
b111111 0
b111111 F
b1011011 !
b1011011 .
b1011011 H
b0 /
b0 ;
b0 E
b10 -
b10 <
b10 G
b10100 1
b10100 :
b10100 @
1%
#41
b10100 *
0%
#42
b110 "
b110 0
b110 F
b1 /
b1 ;
b1 E
b10101 1
b10101 :
b10101 @
1%
#43
b10101 *
0%
#44
b1011011 "
b1011011 0
b1011011 F
b10 /
b10 ;
b10 E
b10110 1
b10110 :
b10110 @
1%
#45
b10110 *
0%
#46
b1001111 "
b1001111 0
b1001111 F
b11 /
b11 ;
b11 E
b10111 1
b10111 :
b10111 @
1%
#47
b10111 *
0%
#48
b1100110 "
b1100110 0
b1100110 F
b100 /
b100 ;
b100 E
b11000 1
b11000 :
b11000 @
1%
#49
b11000 *
0%
#50
b1101101 "
b1101101 0
b1101101 F
b101 /
b101 ;
b101 E
b11001 1
b11001 :
b11001 @
1%
#51
b11001 *
0%
#52
b1111101 "
b1111101 0
b1111101 F
b110 /
b110 ;
b110 E
b11010 1
b11010 :
b11010 @
1%
#53
b11010 *
0%
#54
b111 "
b111 0
b111 F
b111 /
b111 ;
b111 E
b11011 1
b11011 :
b11011 @
1%
#55
b11011 *
0%
#56
b1111111 "
b1111111 0
b1111111 F
b1000 /
b1000 ;
b1000 E
b11100 1
b11100 :
b11100 @
1%
#57
b11100 *
0%
#58
b1101111 "
b1101111 0
b1101111 F
b1001 /
b1001 ;
b1001 E
b11101 1
b11101 :
b11101 @
1%
#59
b11101 *
0%
#60
b111111 "
b111111 0
b111111 F
b1001111 !
b1001111 .
b1001111 H
b0 /
b0 ;
b0 E
b11 -
b11 <
b11 G
b11110 1
b11110 :
b11110 @
1%
#61
b11110 *
0%
#62
b110 "
b110 0
b110 F
b1 /
b1 ;
b1 E
b11111 1
b11111 :
b11111 @
1%
#63
b11111 *
0%
#64
b1011011 "
b1011011 0
b1011011 F
b10 /
b10 ;
b10 E
b100000 1
b100000 :
b100000 @
1%
#65
b100000 *
0%
#66
b1001111 "
b1001111 0
b1001111 F
b11 /
b11 ;
b11 E
b100001 1
b100001 :
b100001 @
1%
#67
b100001 *
0%
#68
b1100110 "
b1100110 0
b1100110 F
b100 /
b100 ;
b100 E
b100010 1
b100010 :
b100010 @
1%
#69
b100010 *
0%
#70
b1101101 "
b1101101 0
b1101101 F
b101 /
b101 ;
b101 E
b100011 1
b100011 :
b100011 @
1%
#71
b100011 *
0%
#72
b1111101 "
b1111101 0
b1111101 F
b110 /
b110 ;
b110 E
b100100 1
b100100 :
b100100 @
1%
#73
b100100 *
0%
#74
b111 "
b111 0
b111 F
b111 /
b111 ;
b111 E
b100101 1
b100101 :
b100101 @
1%
#75
b100101 *
0%
#76
b1111111 "
b1111111 0
b1111111 F
b1000 /
b1000 ;
b1000 E
b100110 1
b100110 :
b100110 @
1%
#77
b100110 *
0%
#78
b1101111 "
b1101111 0
b1101111 F
b1001 /
b1001 ;
b1001 E
b100111 1
b100111 :
b100111 @
1%
#79
b100111 *
0%
#80
b111111 "
b111111 0
b111111 F
b1100110 !
b1100110 .
b1100110 H
b0 /
b0 ;
b0 E
b100 -
b100 <
b100 G
b101000 1
b101000 :
b101000 @
1%
#81
b101000 *
0%
#82
b110 "
b110 0
b110 F
b1 /
b1 ;
b1 E
b101001 1
b101001 :
b101001 @
1%
#83
b101001 *
0%
#84
b1011011 "
b1011011 0
b1011011 F
b10 /
b10 ;
b10 E
b101010 1
b101010 :
b101010 @
1%
#85
b101010 *
0%
#86
b1001111 "
b1001111 0
b1001111 F
b11 /
b11 ;
b11 E
b101011 1
b101011 :
b101011 @
1%
#87
b101011 *
0%
#88
b1100110 "
b1100110 0
b1100110 F
b100 /
b100 ;
b100 E
b101100 1
b101100 :
b101100 @
1%
#89
b101100 *
0%
#90
b1101101 "
b1101101 0
b1101101 F
b101 /
b101 ;
b101 E
b101101 1
b101101 :
b101101 @
1%
#91
b101101 *
0%
#92
b1111101 "
b1111101 0
b1111101 F
b110 /
b110 ;
b110 E
b101110 1
b101110 :
b101110 @
1%
#93
b101110 *
0%
#94
b111 "
b111 0
b111 F
b111 /
b111 ;
b111 E
b101111 1
b101111 :
b101111 @
1%
#95
b101111 *
0%
#96
b1111111 "
b1111111 0
b1111111 F
b1000 /
b1000 ;
b1000 E
b110000 1
b110000 :
b110000 @
1%
#97
b110000 *
0%
#98
b1101111 "
b1101111 0
b1101111 F
b1001 /
b1001 ;
b1001 E
b110001 1
b110001 :
b110001 @
1%
#99
b110001 *
0%
#100
b111111 "
b111111 0
b111111 F
b1101101 !
b1101101 .
b1101101 H
b0 /
b0 ;
b0 E
b101 -
b101 <
b101 G
b110010 1
b110010 :
b110010 @
1%
#101
b110010 *
0%
#102
b110 "
b110 0
b110 F
b1 /
b1 ;
b1 E
b110011 1
b110011 :
b110011 @
1%
#103
b110011 *
0%
#104
b1011011 "
b1011011 0
b1011011 F
b10 /
b10 ;
b10 E
b110100 1
b110100 :
b110100 @
1%
#105
b110100 *
0%
#106
b1001111 "
b1001111 0
b1001111 F
b11 /
b11 ;
b11 E
b110101 1
b110101 :
b110101 @
1%
#107
b110101 *
0%
#108
b1100110 "
b1100110 0
b1100110 F
b100 /
b100 ;
b100 E
b110110 1
b110110 :
b110110 @
1%
#109
b110110 *
0%
#110
b1101101 "
b1101101 0
b1101101 F
b101 /
b101 ;
b101 E
b110111 1
b110111 :
b110111 @
1%
#111
b110111 *
0%
#112
b1111101 "
b1111101 0
b1111101 F
b110 /
b110 ;
b110 E
b111000 1
b111000 :
b111000 @
1%
#113
b111000 *
0%
#114
b111 "
b111 0
b111 F
b111 /
b111 ;
b111 E
b111001 1
b111001 :
b111001 @
1%
#115
b111001 *
0%
#116
b1111111 "
b1111111 0
b1111111 F
b1000 /
b1000 ;
b1000 E
b111010 1
b111010 :
b111010 @
1%
#117
b111010 *
0%
#118
b1101111 "
b1101111 0
b1101111 F
b1001 /
b1001 ;
b1001 E
b111011 1
b111011 :
b111011 @
1%
#119
b111011 *
0%
#120
b110 $
b110 5
b110 B
b111111 "
b111111 0
b111111 F
b111111 !
b111111 .
b111111 H
b1 4
b1 8
b1 A
b0 /
b0 ;
b0 E
b0 -
b0 <
b0 G
b1 6
b1 7
b1 ?
b0 1
b0 :
b0 @
1%
#121
b111100 *
0%
#122
b110 "
b110 0
b110 F
b1 /
b1 ;
b1 E
b1 1
b1 :
b1 @
1%
#123
b111101 *
0%
#124
b1011011 "
b1011011 0
b1011011 F
b10 /
b10 ;
b10 E
b10 1
b10 :
b10 @
1%
#125
b111110 *
0%
#126
b1001111 "
b1001111 0
b1001111 F
b11 /
b11 ;
b11 E
b11 1
b11 :
b11 @
1%
#127
b111111 *
0%
#128
b1100110 "
b1100110 0
b1100110 F
b100 /
b100 ;
b100 E
b100 1
b100 :
b100 @
1%
#129
b1000000 *
0%
#130
b1101101 "
b1101101 0
b1101101 F
b101 /
b101 ;
b101 E
b101 1
b101 :
b101 @
1%
#131
b1000001 *
0%
#132
b1111101 "
b1111101 0
b1111101 F
b110 /
b110 ;
b110 E
b110 1
b110 :
b110 @
1%
#133
b1000010 *
0%
#134
b111 "
b111 0
b111 F
b111 /
b111 ;
b111 E
b111 1
b111 :
b111 @
1%
#135
b1000011 *
0%
#136
b1111111 "
b1111111 0
b1111111 F
b1000 /
b1000 ;
b1000 E
b1000 1
b1000 :
b1000 @
1%
#137
b1000100 *
0%
#138
b1101111 "
b1101111 0
b1101111 F
b1001 /
b1001 ;
b1001 E
b1001 1
b1001 :
b1001 @
1%
#139
b1000101 *
0%
#140
b111111 "
b111111 0
b111111 F
b110 !
b110 .
b110 H
b0 /
b0 ;
b0 E
b1 -
b1 <
b1 G
b1010 1
b1010 :
b1010 @
1%
#141
b1000110 *
0%
#142
b110 "
b110 0
b110 F
b1 /
b1 ;
b1 E
b1011 1
b1011 :
b1011 @
1%
#143
b1000111 *
0%
#144
b1011011 "
b1011011 0
b1011011 F
b10 /
b10 ;
b10 E
b1100 1
b1100 :
b1100 @
1%
#145
b1001000 *
0%
#146
b1001111 "
b1001111 0
b1001111 F
b11 /
b11 ;
b11 E
b1101 1
b1101 :
b1101 @
1%
#147
b1001001 *
0%
#148
b1100110 "
b1100110 0
b1100110 F
b100 /
b100 ;
b100 E
b1110 1
b1110 :
b1110 @
1%
#149
b1001010 *
0%
#150
b1101101 "
b1101101 0
b1101101 F
b101 /
b101 ;
b101 E
b1111 1
b1111 :
b1111 @
1%
#151
b1001011 *
0%
#152
b1111101 "
b1111101 0
b1111101 F
b110 /
b110 ;
b110 E
b10000 1
b10000 :
b10000 @
1%
#153
b1001100 *
0%
#154
b111 "
b111 0
b111 F
b111 /
b111 ;
b111 E
b10001 1
b10001 :
b10001 @
1%
#155
b1001101 *
0%
#156
b1111111 "
b1111111 0
b1111111 F
b1000 /
b1000 ;
b1000 E
b10010 1
b10010 :
b10010 @
1%
#157
b1001110 *
0%
#158
b1101111 "
b1101111 0
b1101111 F
b1001 /
b1001 ;
b1001 E
b10011 1
b10011 :
b10011 @
1%
#159
b1001111 *
0%
#160
b111111 "
b111111 0
b111111 F
b1011011 !
b1011011 .
b1011011 H
b0 /
b0 ;
b0 E
b10 -
b10 <
b10 G
b10100 1
b10100 :
b10100 @
1%
#161
b1010000 *
0%
#162
b110 "
b110 0
b110 F
b1 /
b1 ;
b1 E
b10101 1
b10101 :
b10101 @
1%
#163
b1010001 *
0%
#164
b1011011 "
b1011011 0
b1011011 F
b10 /
b10 ;
b10 E
b10110 1
b10110 :
b10110 @
1%
#165
b1010010 *
0%
#166
b1001111 "
b1001111 0
b1001111 F
b11 /
b11 ;
b11 E
b10111 1
b10111 :
b10111 @
1%
#167
b1010011 *
0%
#168
b1100110 "
b1100110 0
b1100110 F
b100 /
b100 ;
b100 E
b11000 1
b11000 :
b11000 @
1%
#169
b1010100 *
0%
#170
b1101101 "
b1101101 0
b1101101 F
b101 /
b101 ;
b101 E
b11001 1
b11001 :
b11001 @
1%
#171
b1010101 *
0%
#172
b1111101 "
b1111101 0
b1111101 F
b110 /
b110 ;
b110 E
b11010 1
b11010 :
b11010 @
1%
#173
b1010110 *
0%
#174
b111 "
b111 0
b111 F
b111 /
b111 ;
b111 E
b11011 1
b11011 :
b11011 @
1%
#175
b1010111 *
0%
#176
b1111111 "
b1111111 0
b1111111 F
b1000 /
b1000 ;
b1000 E
b11100 1
b11100 :
b11100 @
1%
#177
b1011000 *
0%
#178
b1101111 "
b1101111 0
b1101111 F
b1001 /
b1001 ;
b1001 E
b11101 1
b11101 :
b11101 @
1%
#179
b1011001 *
0%
#180
b111111 "
b111111 0
b111111 F
b1001111 !
b1001111 .
b1001111 H
b0 /
b0 ;
b0 E
b11 -
b11 <
b11 G
b11110 1
b11110 :
b11110 @
1%
#181
b1011010 *
0%
#182
b110 "
b110 0
b110 F
b1 /
b1 ;
b1 E
b11111 1
b11111 :
b11111 @
1%
#183
b1011011 *
0%
#184
b1011011 "
b1011011 0
b1011011 F
b10 /
b10 ;
b10 E
b100000 1
b100000 :
b100000 @
1%
#185
b1011100 *
0%
#186
b1001111 "
b1001111 0
b1001111 F
b11 /
b11 ;
b11 E
b100001 1
b100001 :
b100001 @
1%
#187
b1011101 *
0%
#188
b1100110 "
b1100110 0
b1100110 F
b100 /
b100 ;
b100 E
b100010 1
b100010 :
b100010 @
1%
#189
b1011110 *
0%
#190
b1101101 "
b1101101 0
b1101101 F
b101 /
b101 ;
b101 E
b100011 1
b100011 :
b100011 @
1%
#191
b1011111 *
0%
#192
b1111101 "
b1111101 0
b1111101 F
b110 /
b110 ;
b110 E
b100100 1
b100100 :
b100100 @
1%
#193
b1100000 *
0%
#194
b111 "
b111 0
b111 F
b111 /
b111 ;
b111 E
b100101 1
b100101 :
b100101 @
1%
#195
b1100001 *
0%
#196
b1111111 "
b1111111 0
b1111111 F
b1000 /
b1000 ;
b1000 E
b100110 1
b100110 :
b100110 @
1%
#197
b1100010 *
0%
#198
b1101111 "
b1101111 0
b1101111 F
b1001 /
b1001 ;
b1001 E
b100111 1
b100111 :
b100111 @
1%
#199
b1100011 *
0%
#200
b111111 "
b111111 0
b111111 F
b1100110 !
b1100110 .
b1100110 H
b0 /
b0 ;
b0 E
b100 -
b100 <
b100 G
b101000 1
b101000 :
b101000 @
1%
#201
b1100100 *
0%
#202
b110 "
b110 0
b110 F
b1 /
b1 ;
b1 E
b101001 1
b101001 :
b101001 @
1%
#203
b111111 $
b111111 5
b111111 B
b1001111 #
b1001111 3
b1001111 D
b111111 "
b111111 0
b111111 F
b1001111 !
b1001111 .
b1001111 H
b0 4
b0 8
b0 A
b11 2
b11 9
b11 C
b0 /
b0 ;
b0 E
b11 -
b11 <
b11 G
b11110 6
b11110 7
b11110 ?
b11110 1
b11110 :
b11110 @
1)
b11110 &
b11110 +
b11110 =
b11110 (
b11110 ,
b11110 >
0%
#204
b1100101 *
0)
#205
b110 "
b110 0
b110 F
b1 /
b1 ;
b1 E
b11111 1
b11111 :
b11111 @
1%
#206
b1100110 *
0%
#207
b1011011 "
b1011011 0
b1011011 F
b10 /
b10 ;
b10 E
b100000 1
b100000 :
b100000 @
1%
#208
b1100111 *
0%
#209
b1001111 "
b1001111 0
b1001111 F
b11 /
b11 ;
b11 E
b100001 1
b100001 :
b100001 @
1%
#210
b1101000 *
0%
#211
b1100110 "
b1100110 0
b1100110 F
b100 /
b100 ;
b100 E
b100010 1
b100010 :
b100010 @
1%
#212
b1101001 *
0%
#213
b1101101 "
b1101101 0
b1101101 F
b101 /
b101 ;
b101 E
b100011 1
b100011 :
b100011 @
1%
#214
b1101010 *
0%
#215
b1111101 "
b1111101 0
b1111101 F
b110 /
b110 ;
b110 E
b100100 1
b100100 :
b100100 @
1%
#216
b1101011 *
0%
#217
b111 "
b111 0
b111 F
b111 /
b111 ;
b111 E
b100101 1
b100101 :
b100101 @
1%
#218
b1101100 *
0%
#219
b1111111 "
b1111111 0
b1111111 F
b1000 /
b1000 ;
b1000 E
b100110 1
b100110 :
b100110 @
1%
#220
b1101101 *
0%
#221
b1101111 "
b1101111 0
b1101111 F
b1001 /
b1001 ;
b1001 E
b100111 1
b100111 :
b100111 @
1%
#222
b1101110 *
0%
#223
b111111 "
b111111 0
b111111 F
b1100110 !
b1100110 .
b1100110 H
b0 /
b0 ;
b0 E
b100 -
b100 <
b100 G
b101000 1
b101000 :
b101000 @
1%
#224
b1101111 *
0%
#225
b110 "
b110 0
b110 F
b1 /
b1 ;
b1 E
b101001 1
b101001 :
b101001 @
1%
#226
b1110000 *
0%
#227
b1011011 "
b1011011 0
b1011011 F
b10 /
b10 ;
b10 E
b101010 1
b101010 :
b101010 @
1%
#228
b1110001 *
0%
#229
b1001111 "
b1001111 0
b1001111 F
b11 /
b11 ;
b11 E
b101011 1
b101011 :
b101011 @
1%
#230
b1110010 *
0%
#231
b1100110 "
b1100110 0
b1100110 F
b100 /
b100 ;
b100 E
b101100 1
b101100 :
b101100 @
1%
#232
b1110011 *
0%
#233
b1101101 "
b1101101 0
b1101101 F
b101 /
b101 ;
b101 E
b101101 1
b101101 :
b101101 @
1%
#234
b1110100 *
0%
#235
b1111101 "
b1111101 0
b1111101 F
b110 /
b110 ;
b110 E
b101110 1
b101110 :
b101110 @
1%
#236
b1110101 *
0%
#237
b111 "
b111 0
b111 F
b111 /
b111 ;
b111 E
b101111 1
b101111 :
b101111 @
1%
#238
b1110110 *
0%
#239
b1111111 "
b1111111 0
b1111111 F
b1000 /
b1000 ;
b1000 E
b110000 1
b110000 :
b110000 @
1%
#240
b1110111 *
0%
#241
b1101111 "
b1101111 0
b1101111 F
b1001 /
b1001 ;
b1001 E
b110001 1
b110001 :
b110001 @
1%
#242
b1111000 *
0%
#243
b111111 "
b111111 0
b111111 F
b1101101 !
b1101101 .
b1101101 H
b0 /
b0 ;
b0 E
b101 -
b101 <
b101 G
b110010 1
b110010 :
b110010 @
1%
#244
b1111001 *
0%
#245
b110 "
b110 0
b110 F
b1 /
b1 ;
b1 E
b110011 1
b110011 :
b110011 @
1%
#246
b1111010 *
0%
#247
b1011011 "
b1011011 0
b1011011 F
b10 /
b10 ;
b10 E
b110100 1
b110100 :
b110100 @
1%
#248
b1111011 *
0%
#249
b1001111 "
b1001111 0
b1001111 F
b11 /
b11 ;
b11 E
b110101 1
b110101 :
b110101 @
1%
#250
b1111100 *
0%
#251
b1100110 "
b1100110 0
b1100110 F
b100 /
b100 ;
b100 E
b110110 1
b110110 :
b110110 @
1%
#252
b1111101 *
0%
#253
b1101101 "
b1101101 0
b1101101 F
b101 /
b101 ;
b101 E
b110111 1
b110111 :
b110111 @
1%
#254
b1111110 *
0%
#255
b1111101 "
b1111101 0
b1111101 F
b110 /
b110 ;
b110 E
b111000 1
b111000 :
b111000 @
1%
#256
b1111111 *
0%
#257
b111 "
b111 0
b111 F
b111 /
b111 ;
b111 E
b111001 1
b111001 :
b111001 @
1%
#258
b10000000 *
0%
#259
b1111111 "
b1111111 0
b1111111 F
b1000 /
b1000 ;
b1000 E
b111010 1
b111010 :
b111010 @
1%
#260
b10000001 *
0%
#261
b1101111 "
b1101111 0
b1101111 F
b1001 /
b1001 ;
b1001 E
b111011 1
b111011 :
b111011 @
1%
#262
b10000010 *
0%
#263
b110 $
b110 5
b110 B
b111111 "
b111111 0
b111111 F
b111111 !
b111111 .
b111111 H
b1 4
b1 8
b1 A
b0 /
b0 ;
b0 E
b0 -
b0 <
b0 G
b11111 6
b11111 7
b11111 ?
b0 1
b0 :
b0 @
1%
#264
b10000011 *
0%
#265
b110 "
b110 0
b110 F
b1 /
b1 ;
b1 E
b1 1
b1 :
b1 @
1%
#266
b10000100 *
0%
#267
b1011011 "
b1011011 0
b1011011 F
b10 /
b10 ;
b10 E
b10 1
b10 :
b10 @
1%
#268
b10000101 *
0%
#269
b1001111 "
b1001111 0
b1001111 F
b11 /
b11 ;
b11 E
b11 1
b11 :
b11 @
1%
#270
b10000110 *
0%
#271
b1100110 "
b1100110 0
b1100110 F
b100 /
b100 ;
b100 E
b100 1
b100 :
b100 @
1%
#272
b10000111 *
0%
#273
b1101101 "
b1101101 0
b1101101 F
b101 /
b101 ;
b101 E
b101 1
b101 :
b101 @
1%
#274
b10001000 *
0%
#275
b1111101 "
b1111101 0
b1111101 F
b110 /
b110 ;
b110 E
b110 1
b110 :
b110 @
1%
#276
b10001001 *
0%
#277
b111 "
b111 0
b111 F
b111 /
b111 ;
b111 E
b111 1
b111 :
b111 @
1%
#278
b10001010 *
0%
#279
b1111111 "
b1111111 0
b1111111 F
b1000 /
b1000 ;
b1000 E
b1000 1
b1000 :
b1000 @
1%
#280
b10001011 *
0%
#281
b1101111 "
b1101111 0
b1101111 F
b1001 /
b1001 ;
b1001 E
b1001 1
b1001 :
b1001 @
1%
#282
b10001100 *
0%
#283
b111111 "
b111111 0
b111111 F
b110 !
b110 .
b110 H
b0 /
b0 ;
b0 E
b1 -
b1 <
b1 G
b1010 1
b1010 :
b1010 @
1%
#284
b10001101 *
0%
#285
b110 "
b110 0
b110 F
b1 /
b1 ;
b1 E
b1011 1
b1011 :
b1011 @
1%
#286
b10001110 *
0%
#287
b1011011 "
b1011011 0
b1011011 F
b10 /
b10 ;
b10 E
b1100 1
b1100 :
b1100 @
1%
#288
b10001111 *
0%
#289
b1001111 "
b1001111 0
b1001111 F
b11 /
b11 ;
b11 E
b1101 1
b1101 :
b1101 @
1%
#290
b10010000 *
0%
#291
b1100110 "
b1100110 0
b1100110 F
b100 /
b100 ;
b100 E
b1110 1
b1110 :
b1110 @
1%
#292
b10010001 *
0%
#293
b1101101 "
b1101101 0
b1101101 F
b101 /
b101 ;
b101 E
b1111 1
b1111 :
b1111 @
1%
#294
b10010010 *
0%
#295
b1111101 "
b1111101 0
b1111101 F
b110 /
b110 ;
b110 E
b10000 1
b10000 :
b10000 @
1%
#296
b10010011 *
0%
#297
b111 "
b111 0
b111 F
b111 /
b111 ;
b111 E
b10001 1
b10001 :
b10001 @
1%
#298
b10010100 *
0%
#299
b1111111 "
b1111111 0
b1111111 F
b1000 /
b1000 ;
b1000 E
b10010 1
b10010 :
b10010 @
1%
#300
b10010101 *
0%
#301
b1101111 "
b1101111 0
b1101111 F
b1001 /
b1001 ;
b1001 E
b10011 1
b10011 :
b10011 @
1%
#302
b10010110 *
0%
#303
b111111 "
b111111 0
b111111 F
b1011011 !
b1011011 .
b1011011 H
b0 /
b0 ;
b0 E
b10 -
b10 <
b10 G
b10100 1
b10100 :
b10100 @
1%
#304
b10010111 *
0%
#305
b110 "
b110 0
b110 F
b1 /
b1 ;
b1 E
b10101 1
b10101 :
b10101 @
1%
#306
b10011000 *
0%
#307
b1011011 "
b1011011 0
b1011011 F
b10 /
b10 ;
b10 E
b10110 1
b10110 :
b10110 @
1%
#308
b10011001 *
0%
#309
b1001111 "
b1001111 0
b1001111 F
b11 /
b11 ;
b11 E
b10111 1
b10111 :
b10111 @
1%
#310
b10011010 *
0%
#311
b1100110 "
b1100110 0
b1100110 F
b100 /
b100 ;
b100 E
b11000 1
b11000 :
b11000 @
1%
#312
b10011011 *
0%
#313
b1101101 "
b1101101 0
b1101101 F
b101 /
b101 ;
b101 E
b11001 1
b11001 :
b11001 @
1%
#314
b10011100 *
0%
#315
b1111101 "
b1111101 0
b1111101 F
b110 /
b110 ;
b110 E
b11010 1
b11010 :
b11010 @
1%
#316
b10011101 *
0%
#317
b111 "
b111 0
b111 F
b111 /
b111 ;
b111 E
b11011 1
b11011 :
b11011 @
1%
#318
b10011110 *
0%
#319
b1111111 "
b1111111 0
b1111111 F
b1000 /
b1000 ;
b1000 E
b11100 1
b11100 :
b11100 @
1%
#320
b10011111 *
0%
#321
b1101111 "
b1101111 0
b1101111 F
b1001 /
b1001 ;
b1001 E
b11101 1
b11101 :
b11101 @
1%
#322
b10100000 *
0%
#323
b111111 "
b111111 0
b111111 F
b1001111 !
b1001111 .
b1001111 H
b0 /
b0 ;
b0 E
b11 -
b11 <
b11 G
b11110 1
b11110 :
b11110 @
1%
#324
b10100001 *
0%
#325
b110 "
b110 0
b110 F
b1 /
b1 ;
b1 E
b11111 1
b11111 :
b11111 @
1%
#326
b10100010 *
0%
#327
b1011011 "
b1011011 0
b1011011 F
b10 /
b10 ;
b10 E
b100000 1
b100000 :
b100000 @
1%
#328
b10100011 *
0%
#329
b1001111 "
b1001111 0
b1001111 F
b11 /
b11 ;
b11 E
b100001 1
b100001 :
b100001 @
1%
#330
b10100100 *
0%
#331
b1100110 "
b1100110 0
b1100110 F
b100 /
b100 ;
b100 E
b100010 1
b100010 :
b100010 @
1%
#332
b10100101 *
0%
#333
b1101101 "
b1101101 0
b1101101 F
b101 /
b101 ;
b101 E
b100011 1
b100011 :
b100011 @
1%
#334
b10100110 *
0%
#335
b1111101 "
b1111101 0
b1111101 F
b110 /
b110 ;
b110 E
b100100 1
b100100 :
b100100 @
1%
#336
b10100111 *
0%
#337
b111 "
b111 0
b111 F
b111 /
b111 ;
b111 E
b100101 1
b100101 :
b100101 @
1%
#338
b10101000 *
0%
#339
b1111111 "
b1111111 0
b1111111 F
b1000 /
b1000 ;
b1000 E
b100110 1
b100110 :
b100110 @
1%
#340
b10101001 *
0%
#341
b1101111 "
b1101111 0
b1101111 F
b1001 /
b1001 ;
b1001 E
b100111 1
b100111 :
b100111 @
1%
#342
b10101010 *
0%
#343
b111111 "
b111111 0
b111111 F
b1100110 !
b1100110 .
b1100110 H
b0 /
b0 ;
b0 E
b100 -
b100 <
b100 G
b101000 1
b101000 :
b101000 @
1%
#344
b10101011 *
0%
#345
b110 "
b110 0
b110 F
b1 /
b1 ;
b1 E
b101001 1
b101001 :
b101001 @
1%
#346
b10101100 *
0%
#347
b1011011 "
b1011011 0
b1011011 F
b10 /
b10 ;
b10 E
b101010 1
b101010 :
b101010 @
1%
#348
b10101101 *
0%
#349
b1001111 "
b1001111 0
b1001111 F
b11 /
b11 ;
b11 E
b101011 1
b101011 :
b101011 @
1%
#350
b10101110 *
0%
#351
b1100110 "
b1100110 0
b1100110 F
b100 /
b100 ;
b100 E
b101100 1
b101100 :
b101100 @
1%
#352
b10101111 *
0%
#353
b1101101 "
b1101101 0
b1101101 F
b101 /
b101 ;
b101 E
b101101 1
b101101 :
b101101 @
1%
#354
b10110000 *
0%
#355
b1111101 "
b1111101 0
b1111101 F
b110 /
b110 ;
b110 E
b101110 1
b101110 :
b101110 @
1%
#356
b10110001 *
0%
