Report7/Ex2/test.vcd
$date
	Tue May 01 22:39:25 2018
$end
$version
	Icarus Verilog
$end
$timescale
	1s
$end
$scope module freqDevider $end
$var wire 1 ! clk $end
$var wire 1 " rst $end
$var reg 25 # count [24:0] $end
$var reg 1 $ dclk $end
$upscope $end
$scope module test $end
$var wire 7 % outTen [6:0] $end
$var wire 7 & outOne [6:0] $end
$var wire 6 ' outLED [5:0] $end
$var reg 1 ( clk $end
$var reg 1 ) rst $end
$var integer 32 * cnt [31:0] $end
$scope module S0 $end
$var wire 6 + SIPOout [5:0] $end
$var wire 1 ( clk $end
$var wire 1 ) rst $end
$var wire 7 , outTen [6:0] $end
$var wire 7 - outOne [6:0] $end
$var wire 6 . outLED [5:0] $end
$var wire 4 / BCDoutTen [3:0] $end
$var wire 4 0 BCDoutOne [3:0] $end
$scope module BTB $end
$var wire 6 1 in [5:0] $end
$var reg 4 2 outOne [3:0] $end
$var reg 4 3 outTen [3:0] $end
$upscope $end
$scope module SIPO $end
$var wire 1 ( clk $end
$var wire 1 4 in $end
$var wire 1 ) rst $end
$var reg 6 5 out [5:0] $end
$upscope $end
$scope module SS0 $end
$var wire 4 6 in [3:0] $end
$var reg 7 7 out [6:0] $end
$upscope $end
$scope module SS1 $end
$var wire 4 8 in [3:0] $end
$var reg 7 9 out [6:0] $end
$upscope $end
$upscope $end
$upscope $end
$enddefinitions $end
#0
$dumpvars
b111111 9
b0 8
b110 7
b1 6
b1 5
04
b0 3
b1 2
b1 1
b1 0
b0 /
b1 .
b110 -
b111111 ,
b1 +
bx *
1)
0(
b1 '
b110 &
b111111 %
x$
bx #
z"
z!
$end
#1
b0 *
0)
#2
b1011011 &
b1011011 -
b1011011 7
b10 0
b10 2
b10 6
b10 +
b10 1
b10 '
b10 .
b10 5
1(
#3
b1 *
0(
#4
b1100110 &
b1100110 -
b1100110 7
b100 0
b100 2
b100 6
b100 +
b100 1
b100 '
b100 .
b100 5
1(
#5
b10 *
0(
#6
b1111111 &
b1111111 -
b1111111 7
b1000 0
b1000 2
b1000 6
b1000 +
b1000 1
b1000 '
b1000 .
b1000 5
1(
#7
b11 *
0(
#8
b1111101 &
b1111101 -
b1111101 7
b110 %
b110 ,
b110 9
b110 0
b110 2
b110 6
b1 /
b1 3
b1 8
b10000 +
b10000 1
b10000 '
b10000 .
b10000 5
1(
#9
b100 *
0(
#10
b1011011 &
b1011011 -
b1011011 7
b1001111 %
b1001111 ,
b1001111 9
b10 0
b10 2
b10 6
b11 /
b11 3
b11 8
14
b100000 +
b100000 1
b100000 '
b100000 .
b100000 5
1(
#11
b101 *
0(
#12
b110 &
b110 -
b110 7
b111111 %
b111111 ,
b111111 9
b1 0
b1 2
b1 6
b0 /
b0 3
b0 8
04
b1 +
b1 1
b1 '
b1 .
b1 5
1(
#13
b110 *
0(
#14
b1011011 &
b1011011 -
b1011011 7
b10 0
b10 2
b10 6
b10 +
b10 1
b10 '
b10 .
b10 5
1(
#15
b111 *
0(
#16
b1100110 &
b1100110 -
b1100110 7
b100 0
b100 2
b100 6
b100 +
b100 1
b100 '
b100 .
b100 5
1(
#17
b1000 *
0(
#18
b1111111 &
b1111111 -
b1111111 7
b1000 0
b1000 2
b1000 6
b1000 +
b1000 1
b1000 '
b1000 .
b1000 5
1(
#19
b1001 *
0(
#20
b1111101 &
b1111101 -
b1111101 7
b110 %
b110 ,
b110 9
b110 0
b110 2
b110 6
b1 /
b1 3
b1 8
b10000 +
b10000 1
b10000 '
b10000 .
b10000 5
1(
#21
b1010 *
0(
#22
b1011011 &
b1011011 -
b1011011 7
b1001111 %
b1001111 ,
b1001111 9
b10 0
b10 2
b10 6
b11 /
b11 3
b11 8
14
b100000 +
b100000 1
b100000 '
b100000 .
b100000 5
1(
#23
b1011 *
0(
#24
b110 &
b110 -
b110 7
b111111 %
b111111 ,
b111111 9
b1 0
b1 2
b1 6
b0 /
b0 3
b0 8
04
b1 +
b1 1
b1 '
b1 .
b1 5
1(
#25
b1100 *
0(
#26
b1011011 &
b1011011 -
b1011011 7
b10 0
b10 2
b10 6
b10 +
b10 1
b10 '
b10 .
b10 5
1(
#27
b1101 *
0(
#28
b1100110 &
b1100110 -
b1100110 7
b100 0
b100 2
b100 6
b100 +
b100 1
b100 '
b100 .
b100 5
1(
#29
b1110 *
0(
#30
b1111111 &
b1111111 -
b1111111 7
b1000 0
b1000 2
b1000 6
b1000 +
b1000 1
b1000 '
b1000 .
b1000 5
1(
#31
b1111 *
0(
#32
b1111101 &
b1111101 -
b1111101 7
b110 %
b110 ,
b110 9
b110 0
b110 2
b110 6
b1 /
b1 3
b1 8
b10000 +
b10000 1
b10000 '
b10000 .
b10000 5
1(
#33
b10000 *
0(
#34
b1011011 &
b1011011 -
b1011011 7
b1001111 %
b1001111 ,
b1001111 9
b10 0
b10 2
b10 6
b11 /
b11 3
b11 8
14
b100000 +
b100000 1
b100000 '
b100000 .
b100000 5
1(
#35
b10001 *
0(
#36
b110 &
b110 -
b110 7
b111111 %
b111111 ,
b111111 9
b1 0
b1 2
b1 6
b0 /
b0 3
b0 8
04
b1 +
b1 1
b1 '
b1 .
b1 5
1(
#37
b10010 *
0(
#38
b1011011 &
b1011011 -
b1011011 7
b10 0
b10 2
b10 6
b10 +
b10 1
b10 '
b10 .
b10 5
1(
#39
b10011 *
0(
#40
b1100110 &
b1100110 -
b1100110 7
b100 0
b100 2
b100 6
b100 +
b100 1
b100 '
b100 .
b100 5
1(
#41
b10100 *
0(
#42
b1111111 &
b1111111 -
b1111111 7
b1000 0
b1000 2
b1000 6
b1000 +
b1000 1
b1000 '
b1000 .
b1000 5
1(
#43
b10101 *
0(
#44
b1111101 &
b1111101 -
b1111101 7
b110 %
b110 ,
b110 9
b110 0
b110 2
b110 6
b1 /
b1 3
b1 8
b10000 +
b10000 1
b10000 '
b10000 .
b10000 5
1(
#45
b10110 *
0(
#46
b1011011 &
b1011011 -
b1011011 7
b1001111 %
b1001111 ,
b1001111 9
b10 0
b10 2
b10 6
b11 /
b11 3
b11 8
14
b100000 +
b100000 1
b100000 '
b100000 .
b100000 5
1(
#47
b10111 *
0(
#48
b110 &
b110 -
b110 7
b111111 %
b111111 ,
b111111 9
b1 0
b1 2
b1 6
b0 /
b0 3
b0 8
04
b1 +
b1 1
b1 '
b1 .
b1 5
1(
#49
b11000 *
0(
#50
b1011011 &
b1011011 -
b1011011 7
b10 0
b10 2
b10 6
b10 +
b10 1
b10 '
b10 .
b10 5
1(
#51
b11001 *
0(
#52
b1100110 &
b1100110 -
b1100110 7
b100 0
b100 2
b100 6
b100 +
b100 1
b100 '
b100 .
b100 5
1(
#53
b11010 *
0(
#54
b1111111 &
b1111111 -
b1111111 7
b1000 0
b1000 2
b1000 6
b1000 +
b1000 1
b1000 '
b1000 .
b1000 5
1(
#55
b11011 *
0(
#56
b1111101 &
b1111101 -
b1111101 7
b110 %
b110 ,
b110 9
b110 0
b110 2
b110 6
b1 /
b1 3
b1 8
b10000 +
b10000 1
b10000 '
b10000 .
b10000 5
1(
#57
b11100 *
0(
#58
b1011011 &
b1011011 -
b1011011 7
b1001111 %
b1001111 ,
b1001111 9
b10 0
b10 2
b10 6
b11 /
b11 3
b11 8
14
b100000 +
b100000 1
b100000 '
b100000 .
b100000 5
1(
#59
b11101 *
0(
#60
b110 &
b110 -
b110 7
b111111 %
b111111 ,
b111111 9
b1 0
b1 2
b1 6
b0 /
b0 3
b0 8
04
b1 +
b1 1
b1 '
b1 .
b1 5
1(
#61
b11110 *
0(
#62
b1011011 &
b1011011 -
b1011011 7
b10 0
b10 2
b10 6
b10 +
b10 1
b10 '
b10 .
b10 5
1(
#63
b11111 *
0(
#64
b1100110 &
b1100110 -
b1100110 7
b100 0
b100 2
b100 6
b100 +
b100 1
b100 '
b100 .
b100 5
1(
#65
b100000 *
0(
#66
b1111111 &
b1111111 -
b1111111 7
b1000 0
b1000 2
b1000 6
b1000 +
b1000 1
b1000 '
b1000 .
b1000 5
1(
#67
b100001 *
0(
#68
b1111101 &
b1111101 -
b1111101 7
b110 %
b110 ,
b110 9
b110 0
b110 2
b110 6
b1 /
b1 3
b1 8
b10000 +
b10000 1
b10000 '
b10000 .
b10000 5
1(
#69
b100010 *
0(
#70
b1011011 &
b1011011 -
b1011011 7
b1001111 %
b1001111 ,
b1001111 9
b10 0
b10 2
b10 6
b11 /
b11 3
b11 8
14
b100000 +
b100000 1
b100000 '
b100000 .
b100000 5
1(
#71
b100011 *
0(
#72
b110 &
b110 -
b110 7
b111111 %
b111111 ,
b111111 9
b1 0
b1 2
b1 6
b0 /
b0 3
b0 8
04
b1 +
b1 1
b1 '
b1 .
b1 5
1(
#73
b100100 *
0(
#74
b1011011 &
b1011011 -
b1011011 7
b10 0
b10 2
b10 6
b10 +
b10 1
b10 '
b10 .
b10 5
1(
#75
b100101 *
0(
#76
b1100110 &
b1100110 -
b1100110 7
b100 0
b100 2
b100 6
b100 +
b100 1
b100 '
b100 .
b100 5
1(
#77
b100110 *
0(
#78
b1111111 &
b1111111 -
b1111111 7
b1000 0
b1000 2
b1000 6
b1000 +
b1000 1
b1000 '
b1000 .
b1000 5
1(
#79
b100111 *
0(
#80
b1111101 &
b1111101 -
b1111101 7
b110 %
b110 ,
b110 9
b110 0
b110 2
b110 6
b1 /
b1 3
b1 8
b10000 +
b10000 1
b10000 '
b10000 .
b10000 5
1(
#81
b101000 *
0(
#82
b1011011 &
b1011011 -
b1011011 7
b1001111 %
b1001111 ,
b1001111 9
b10 0
b10 2
b10 6
b11 /
b11 3
b11 8
14
b100000 +
b100000 1
b100000 '
b100000 .
b100000 5
1(
#83
b101001 *
0(
#84
b110 &
b110 -
b110 7
b111111 %
b111111 ,
b111111 9
b1 0
b1 2
b1 6
b0 /
b0 3
b0 8
04
b1 +
b1 1
b1 '
b1 .
b1 5
1(
#85
b101010 *
0(
#86
b1011011 &
b1011011 -
b1011011 7
b10 0
b10 2
b10 6
b10 +
b10 1
b10 '
b10 .
b10 5
1(
#87
b101011 *
0(
#88
b1100110 &
b1100110 -
b1100110 7
b100 0
b100 2
b100 6
b100 +
b100 1
b100 '
b100 .
b100 5
1(
#89
b101100 *
0(
#90
b1111111 &
b1111111 -
b1111111 7
b1000 0
b1000 2
b1000 6
b1000 +
b1000 1
b1000 '
b1000 .
b1000 5
1(
#91
b101101 *
0(
#92
b1111101 &
b1111101 -
b1111101 7
b110 %
b110 ,
b110 9
b110 0
b110 2
b110 6
b1 /
b1 3
b1 8
b10000 +
b10000 1
b10000 '
b10000 .
b10000 5
1(
#93
b101110 *
0(
#94
b1011011 &
b1011011 -
b1011011 7
b1001111 %
b1001111 ,
b1001111 9
b10 0
b10 2
b10 6
b11 /
b11 3
b11 8
14
b100000 +
b100000 1
b100000 '
b100000 .
b100000 5
1(
#95
b101111 *
0(
#96
b110 &
b110 -
b110 7
b111111 %
b111111 ,
b111111 9
b1 0
b1 2
b1 6
b0 /
b0 3
b0 8
04
b1 +
b1 1
b1 '
b1 .
b1 5
1(
#97
b110000 *
0(
#98
b1011011 &
b1011011 -
b1011011 7
b10 0
b10 2
b10 6
b10 +
b10 1
b10 '
b10 .
b10 5
1(
#99
b110001 *
0(
#100
b1100110 &
b1100110 -
b1100110 7
b100 0
b100 2
b100 6
b100 +
b100 1
b100 '
b100 .
b100 5
1(
#101
b110010 *
0(
#102
b1111111 &
b1111111 -
b1111111 7
b1000 0
b1000 2
b1000 6
b1000 +
b1000 1
b1000 '
b1000 .
b1000 5
1(
#103
b110011 *
0(
#104
b1111101 &
b1111101 -
b1111101 7
b110 %
b110 ,
b110 9
b110 0
b110 2
b110 6
b1 /
b1 3
b1 8
b10000 +
b10000 1
b10000 '
b10000 .
b10000 5
1(
#105
b110100 *
0(
#106
b1011011 &
b1011011 -
b1011011 7
b1001111 %
b1001111 ,
b1001111 9
b10 0
b10 2
b10 6
b11 /
b11 3
b11 8
14
b100000 +
b100000 1
b100000 '
b100000 .
b100000 5
1(
#107
b110101 *
0(
#108
b110 &
b110 -
b110 7
b111111 %
b111111 ,
b111111 9
b1 0
b1 2
b1 6
b0 /
b0 3
b0 8
04
b1 +
b1 1
b1 '
b1 .
b1 5
1(
#109
b110110 *
0(
#110
b1011011 &
b1011011 -
b1011011 7
b10 0
b10 2
b10 6
b10 +
b10 1
b10 '
b10 .
b10 5
1(
#111
b110111 *
0(
#112
b1100110 &
b1100110 -
b1100110 7
b100 0
b100 2
b100 6
b100 +
b100 1
b100 '
b100 .
b100 5
1(
#113
b111000 *
0(
#114
b1111111 &
b1111111 -
b1111111 7
b1000 0
b1000 2
b1000 6
b1000 +
b1000 1
b1000 '
b1000 .
b1000 5
1(
#115
b111001 *
0(
#116
b1111101 &
b1111101 -
b1111101 7
b110 %
b110 ,
b110 9
b110 0
b110 2
b110 6
b1 /
b1 3
b1 8
b10000 +
b10000 1
b10000 '
b10000 .
b10000 5
1(
#117
b111010 *
0(
#118
b1011011 &
b1011011 -
b1011011 7
b1001111 %
b1001111 ,
b1001111 9
b10 0
b10 2
b10 6
b11 /
b11 3
b11 8
14
b100000 +
b100000 1
b100000 '
b100000 .
b100000 5
1(
#119
b111011 *
0(
#120
b110 &
b110 -
b110 7
b111111 %
b111111 ,
b111111 9
b1 0
b1 2
b1 6
b0 /
b0 3
b0 8
04
b1 +
b1 1
b1 '
b1 .
b1 5
1(
#121
b111100 *
0(
#122
b1011011 &
b1011011 -
b1011011 7
b10 0
b10 2
b10 6
b10 +
b10 1
b10 '
b10 .
b10 5
1(
#123
b111101 *
0(
#124
b1100110 &
b1100110 -
b1100110 7
b100 0
b100 2
b100 6
b100 +
b100 1
b100 '
b100 .
b100 5
1(
#125
b111110 *
0(
#126
b1111111 &
b1111111 -
b1111111 7
b1000 0
b1000 2
b1000 6
b1000 +
b1000 1
b1000 '
b1000 .
b1000 5
1(
#127
b111111 *
0(
#128
b1111101 &
b1111101 -
b1111101 7
b110 %
b110 ,
b110 9
b110 0
b110 2
b110 6
b1 /
b1 3
b1 8
b10000 +
b10000 1
b10000 '
b10000 .
b10000 5
1(
#129
b1000000 *
0(
#130
b1011011 &
b1011011 -
b1011011 7
b1001111 %
b1001111 ,
b1001111 9
b10 0
b10 2
b10 6
b11 /
b11 3
b11 8
14
b100000 +
b100000 1
b100000 '
b100000 .
b100000 5
1(
#131
b1000001 *
0(
#132
b110 &
b110 -
b110 7
b111111 %
b111111 ,
b111111 9
b1 0
b1 2
b1 6
b0 /
b0 3
b0 8
04
b1 +
b1 1
b1 '
b1 .
b1 5
1(
#133
b1000010 *
0(
#134
b1011011 &
b1011011 -
b1011011 7
b10 0
b10 2
b10 6
b10 +
b10 1
b10 '
b10 .
b10 5
1(
#135
b1000011 *
0(
#136
b1100110 &
b1100110 -
b1100110 7
b100 0
b100 2
b100 6
b100 +
b100 1
b100 '
b100 .
b100 5
1(
#137
b1000100 *
0(
#138
b1111111 &
b1111111 -
b1111111 7
b1000 0
b1000 2
b1000 6
b1000 +
b1000 1
b1000 '
b1000 .
b1000 5
1(
#139
b1000101 *
0(
#140
b1111101 &
b1111101 -
b1111101 7
b110 %
b110 ,
b110 9
b110 0
b110 2
b110 6
b1 /
b1 3
b1 8
b10000 +
b10000 1
b10000 '
b10000 .
b10000 5
1(
#141
b1000110 *
0(
#142
b1011011 &
b1011011 -
b1011011 7
b1001111 %
b1001111 ,
b1001111 9
b10 0
b10 2
b10 6
b11 /
b11 3
b11 8
14
b100000 +
b100000 1
b100000 '
b100000 .
b100000 5
1(
#143
b1000111 *
0(
#144
b110 &
b110 -
b110 7
b111111 %
b111111 ,
b111111 9
b1 0
b1 2
b1 6
b0 /
b0 3
b0 8
04
b1 +
b1 1
b1 '
b1 .
b1 5
1(
#145
b1001000 *
0(
#146
b1011011 &
b1011011 -
b1011011 7
b10 0
b10 2
b10 6
b10 +
b10 1
b10 '
b10 .
b10 5
1(
#147
b1001001 *
0(
#148
b1100110 &
b1100110 -
b1100110 7
b100 0
b100 2
b100 6
b100 +
b100 1
b100 '
b100 .
b100 5
1(
#149
b1001010 *
0(
#150
b1111111 &
b1111111 -
b1111111 7
b1000 0
b1000 2
b1000 6
b1000 +
b1000 1
b1000 '
b1000 .
b1000 5
1(
#151
b1001011 *
0(
#152
b1111101 &
b1111101 -
b1111101 7
b110 %
b110 ,
b110 9
b110 0
b110 2
b110 6
b1 /
b1 3
b1 8
b10000 +
b10000 1
b10000 '
b10000 .
b10000 5
1(
#153
b1001100 *
0(
#154
b1011011 &
b1011011 -
b1011011 7
b1001111 %
b1001111 ,
b1001111 9
b10 0
b10 2
b10 6
b11 /
b11 3
b11 8
14
b100000 +
b100000 1
b100000 '
b100000 .
b100000 5
1(
#155
b1001101 *
0(
#156
b110 &
b110 -
b110 7
b111111 %
b111111 ,
b111111 9
b1 0
b1 2
b1 6
b0 /
b0 3
b0 8
04
b1 +
b1 1
b1 '
b1 .
b1 5
1(
#157
b1001110 *
0(
#158
b1011011 &
b1011011 -
b1011011 7
b10 0
b10 2
b10 6
b10 +
b10 1
b10 '
b10 .
b10 5
1(
#159
b1001111 *
0(
#160
b1100110 &
b1100110 -
b1100110 7
b100 0
b100 2
b100 6
b100 +
b100 1
b100 '
b100 .
b100 5
1(
#161
b1010000 *
0(
#162
b1111111 &
b1111111 -
b1111111 7
b1000 0
b1000 2
b1000 6
b1000 +
b1000 1
b1000 '
b1000 .
b1000 5
1(
#163
b1010001 *
0(
#164
b1111101 &
b1111101 -
b1111101 7
b110 %
b110 ,
b110 9
b110 0
b110 2
b110 6
b1 /
b1 3
b1 8
b10000 +
b10000 1
b10000 '
b10000 .
b10000 5
1(
#165
b1010010 *
0(
#166
b1011011 &
b1011011 -
b1011011 7
b1001111 %
b1001111 ,
b1001111 9
b10 0
b10 2
b10 6
b11 /
b11 3
b11 8
14
b100000 +
b100000 1
b100000 '
b100000 .
b100000 5
1(
#167
b1010011 *
0(
#168
b110 &
b110 -
b110 7
b111111 %
b111111 ,
b111111 9
b1 0
b1 2
b1 6
b0 /
b0 3
b0 8
04
b1 +
b1 1
b1 '
b1 .
b1 5
1(
#169
b1010100 *
0(
#170
b1011011 &
b1011011 -
b1011011 7
b10 0
b10 2
b10 6
b10 +
b10 1
b10 '
b10 .
b10 5
1(
#171
b1010101 *
0(
#172
b1100110 &
b1100110 -
b1100110 7
b100 0
b100 2
b100 6
b100 +
b100 1
b100 '
b100 .
b100 5
1(
#173
b1010110 *
0(
#174
b1111111 &
b1111111 -
b1111111 7
b1000 0
b1000 2
b1000 6
b1000 +
b1000 1
b1000 '
b1000 .
b1000 5
1(
#175
b1010111 *
0(
#176
b1111101 &
b1111101 -
b1111101 7
b110 %
b110 ,
b110 9
b110 0
b110 2
b110 6
b1 /
b1 3
b1 8
b10000 +
b10000 1
b10000 '
b10000 .
b10000 5
1(
#177
b1011000 *
0(
#178
b1011011 &
b1011011 -
b1011011 7
b1001111 %
b1001111 ,
b1001111 9
b10 0
b10 2
b10 6
b11 /
b11 3
b11 8
14
b100000 +
b100000 1
b100000 '
b100000 .
b100000 5
1(
#179
b1011001 *
0(
#180
b110 &
b110 -
b110 7
b111111 %
b111111 ,
b111111 9
b1 0
b1 2
b1 6
b0 /
b0 3
b0 8
04
b1 +
b1 1
b1 '
b1 .
b1 5
1(
#181
b1011010 *
0(
#182
b1011011 &
b1011011 -
b1011011 7
b10 0
b10 2
b10 6
b10 +
b10 1
b10 '
b10 .
b10 5
1(
#183
b1011011 *
0(
#184
b1100110 &
b1100110 -
b1100110 7
b100 0
b100 2
b100 6
b100 +
b100 1
b100 '
b100 .
b100 5
1(
#185
b1011100 *
0(
#186
b1111111 &
b1111111 -
b1111111 7
b1000 0
b1000 2
b1000 6
b1000 +
b1000 1
b1000 '
b1000 .
b1000 5
1(
#187
b1011101 *
0(
#188
b1111101 &
b1111101 -
b1111101 7
b110 %
b110 ,
b110 9
b110 0
b110 2
b110 6
b1 /
b1 3
b1 8
b10000 +
b10000 1
b10000 '
b10000 .
b10000 5
1(
#189
b1011110 *
0(
#190
b1011011 &
b1011011 -
b1011011 7
b1001111 %
b1001111 ,
b1001111 9
b10 0
b10 2
b10 6
b11 /
b11 3
b11 8
14
b100000 +
b100000 1
b100000 '
b100000 .
b100000 5
1(
#191
b1011111 *
0(
#192
b110 &
b110 -
b110 7
b111111 %
b111111 ,
b111111 9
b1 0
b1 2
b1 6
b0 /
b0 3
b0 8
04
b1 +
b1 1
b1 '
b1 .
b1 5
1(
#193
b1100000 *
0(
#194
b1011011 &
b1011011 -
b1011011 7
b10 0
b10 2
b10 6
b10 +
b10 1
b10 '
b10 .
b10 5
1(
#195
b1100001 *
0(
#196
b1100110 &
b1100110 -
b1100110 7
b100 0
b100 2
b100 6
b100 +
b100 1
b100 '
b100 .
b100 5
1(
#197
b1100010 *
0(
#198
b1111111 &
b1111111 -
b1111111 7
b1000 0
b1000 2
b1000 6
b1000 +
b1000 1
b1000 '
b1000 .
b1000 5
1(
#199
b1100011 *
0(
#200
b1111101 &
b1111101 -
b1111101 7
b110 %
b110 ,
b110 9
b110 0
b110 2
b110 6
b1 /
b1 3
b1 8
b10000 +
b10000 1
b10000 '
b10000 .
b10000 5
1(
#201
b1100100 *
0(
